{
  "id": 19,
  "uid": "fcm_edit_user",
  "group_description": "FCM user with edit rights",
  "parent_group_id": 18,
  "product_id": 2,
  "product": {
    "id": 2,
    "uid": "fcm",
    "product_description": "Forecast model",
    "abbreviation": "FCM",
    "role_prefix": "fcm"
  },
  "roles_direct": [
    {
      "id": 7,
      "uid": "fcm_edit",
      "role_description": "Editing rights in FCM",
      "product_id": 2
    }
  ],
  "users_direct": [
    {
      "user_id": 10,
      "login": "michaela.matuskova@seznam.cz",
      "title": "Analyst",
      "first_name": "Michaela",
      "last_name": "Matuskova",
      "email": "michaela.matuskova@seznam.cz"
    }
  ],
  "descendant_groups": [
    {
      "id": 20,
      "uid": "fcm_admin",
      "group_description": "FCM admin",
      "parent_group_id": 19,
      "product_id": 2
    }
  ],
  "sibling_groups": [],
  "ancestor_groups": [
    {
      "id": 17,
      "uid": "fcm_user",
      "group_description": "Basic user with FCM access",
      "parent_group_id": null,
      "product_id": 2
    },
    {
      "id": 18,
      "uid": "fcm_read_user",
      "group_description": "FCM readonly user",
      "parent_group_id": 17,
      "product_id": 2
    }
  ],
  "roles_inherited": [
    {
      "id": 6,
      "uid": "fcm_access",
      "role_description": "Access to FCM"
    },
    {
      "id": 9,
      "uid": "fcm_export",
      "role_description": "Access to export functionality in FCM"
    },
    {
      "id": 10,
      "uid": "fcm_import",
      "role_description": "Access to import functionality in FCM"
    }
  ],
  "users_inherited": [
    {
      "user_id": 2,
      "login": "simon.prochazka@logex.com",
      "first_name": "Simon",
      "last_name": "Prochazka"
    },
    {
      "user_id": 3,
      "login": "radim.fornusek@logex.com",
      "first_name": "Radim",
      "last_name": "Fornusek"
    },
    {
      "user_id": 6,
      "login": "ruprecht.lopen@seznam.cz",
      "first_name": "Ruprecht",
      "last_name": "Lopen"
    },
    {
      "user_id": 8,
      "login": "jirina.bohdalova@seznam.cz",
      "first_name": "Jirina",
      "last_name": "Bohdalova"
    },
    {
      "user_id": 10,
      "login": "michaela.matuskova@seznam.cz",
      "first_name": "Michaela",
      "last_name": "Matuskova"
    }
  ]
}
