{
  "user_id": 2,
  "login": "simon.prochazka@logex.com",
  "title": "Developer",
  "first_name": "Simon",
  "last_name": "Prochazka",
  "email": "simon.prochazka@logex.com",
  "groups_direct": [
    {
      "id": 16,
      "uid": "bg_admin",
      "group_description": "BGM admin",
      "parent_group_id": 15,
      "product_id": 1
    },
    {
      "id": 20,
      "uid": "fcm_admin",
      "group_description": "FCM admin",
      "parent_group_id": 19,
      "product_id": 2
    },
    {
      "id": 24,
      "uid": "ohm_admin",
      "group_description": "OHM admin",
      "parent_group_id": 23,
      "product_id": 3
    }
  ],
  "roles_direct": [
    {
      "id": 1,
      "uid": "bg_access",
      "role_description": "Access to BGM",
      "product_id": 1
    },
    {
      "id": 2,
      "uid": "bg_edit",
      "role_description": "Editing rights in BGM",
      "product_id": 1
    },
    {
      "id": 3,
      "uid": "bg_admin",
      "role_description": "Admin rights in BGM",
      "product_id": 1
    },
    {
      "id": 4,
      "uid": "bg_export",
      "role_description": "Access to export functionality in BGM",
      "product_id": 1
    },
    {
      "id": 5,
      "uid": "bg_import",
      "role_description": "Access to import functionality in BGM",
      "product_id": 1
    },
    {
      "id": 6,
      "uid": "fcm_access",
      "role_description": "Access to FCM",
      "product_id": 2
    },
    {
      "id": 11,
      "uid": "ohm_access",
      "role_description": "Access to OHM",
      "product_id": 3
    }
  ],
  "roles_inherited": [
    {
      "id": 1,
      "uid": "bg_access",
      "role_description": "Access to BGM",
      "product_id": 1
    },
    {
      "id": 2,
      "uid": "bg_edit",
      "role_description": "Editing rights in BGM",
      "product_id": 1
    },
    {
      "id": 3,
      "uid": "bg_admin",
      "role_description": "Admin rights in BGM",
      "product_id": 1
    },
    {
      "id": 4,
      "uid": "bg_export",
      "role_description": "Access to export functionality in BGM",
      "product_id": 1
    },
    {
      "id": 5,
      "uid": "bg_import",
      "role_description": "Access to import functionality in BGM",
      "product_id": 1
    },
    {
      "id": 6,
      "uid": "fcm_access",
      "role_description": "Access to FCM",
      "product_id": 2
    },
    {
      "id": 7,
      "uid": "fcm_edit",
      "role_description": "Editing rights in FCM",
      "product_id": 2
    },
    {
      "id": 8,
      "uid": "fcm_admin",
      "role_description": "Admin rights in FCM",
      "product_id": 2
    },
    {
      "id": 9,
      "uid": "fcm_export",
      "role_description": "Access to export functionality in FCM",
      "product_id": 2
    },
    {
      "id": 10,
      "uid": "fcm_import",
      "role_description": "Access to import functionality in FCM",
      "product_id": 2
    },
    {
      "id": 11,
      "uid": "ohm_access",
      "role_description": "Access to OHM",
      "product_id": 3
    },
    {
      "id": 12,
      "uid": "ohm_edit",
      "role_description": "Editing rights in OHM",
      "product_id": 3
    },
    {
      "id": 13,
      "uid": "ohm_admin",
      "role_description": "Admin rights in OHM",
      "product_id": 3
    },
    {
      "id": 14,
      "uid": "ohm_export",
      "role_description": "Access to export functionality in OHM",
      "product_id": 3
    },
    {
      "id": 15,
      "uid": "ohm_import",
      "role_description": "Access to import functionality in OHM",
      "product_id": 3
    }
  ],
  "groups_inherited": [
    {
      "id": 13,
      "uid": "bg_user",
      "group_description": "Basic user with BGM access",
      "parent_group_id": null,
      "product_id": 1
    },
    {
      "id": 14,
      "uid": "bg_read_user",
      "group_description": "BGM readonly user",
      "parent_group_id": 13,
      "product_id": 1
    },
    {
      "id": 15,
      "uid": "bg_edit_user",
      "group_description": "BGM user with edit rights",
      "parent_group_id": 14,
      "product_id": 1
    },
    {
      "id": 17,
      "uid": "fcm_user",
      "group_description": "Basic user with FCM access",
      "parent_group_id": null,
      "product_id": 2
    },
    {
      "id": 18,
      "uid": "fcm_read_user",
      "group_description": "FCM readonly user",
      "parent_group_id": 17,
      "product_id": 2
    },
    {
      "id": 19,
      "uid": "fcm_edit_user",
      "group_description": "FCM user with edit rights",
      "parent_group_id": 18,
      "product_id": 2
    },
    {
      "id": 21,
      "uid": "ohm_user",
      "group_description": "Basic user with OHM access",
      "parent_group_id": null,
      "product_id": 3
    },
    {
      "id": 22,
      "uid": "ohm_read_user",
      "group_description": "OHM readonly user",
      "parent_group_id": 21,
      "product_id": 3
    },
    {
      "id": 23,
      "uid": "ohm_edit_user",
      "group_description": "OHM user with edit rights",
      "parent_group_id": 22,
      "product_id": 3
    }
  ]
}
